id,name,model_id:id,group_id:id,perm_read,perm_write,perm_create,perm_unlink
access_med_agenda_citas,Agendar Citas,model_agenda_citas,med_oftalmologia.security_clinica_grupo_director,1,1,1,0
access_med_agenda_referencia,Crear Referencias,model_agenda_referencias,med_oftalmologia.security_clinica_grupo_director,1,1,1,0
access_med_agenda_referencia_dir,Crear Direcciones en Referencias,model_referencia_direccion,med_oftalmologia.security_clinica_grupo_director,1,1,1,0
access_med_entrevista,Crear Entrevistas,model_entrevista_medica,med_oftalmologia.security_clinica_grupo_director,1,1,1,0
access_med_estudios_oftal,Crear Estudios Oftalmologicos,model_estudios_oftalmologicos,med_oftalmologia.security_clinica_grupo_director,1,1,1,0
access_med_agenda_referencia_telf,Crear Telefonos en Referencias,model_referencia_telefono,med_oftalmologia.security_clinica_grupo_director,1,1,1,0
access_med_expediente_clinico,Crear Expedientes clinicos,model_expediente_clinico,med_oftalmologia.security_clinica_grupo_director,1,1,1,0
access_med_exploracion_optometrica,Crear Exploracion Optometrica,model_exploracion_optometrica,med_oftalmologia.security_clinica_grupo_director,1,1,1,0
access_med_refraccion_final,Crear Refraccion Final para exp optometrica,model_refraccion_final,med_oftalmologia.security_clinica_grupo_director,1,1,1,0
access_med_lab_preoperatorios,Crear Laboratorios Pre-Operatorios,model_lab_preoperatorios,med_oftalmologia.security_clinica_grupo_director,1,1,1,0
access_med_nota_privacidad,Crear Nota Privacidad,model_nota_privacidad,med_oftalmologia.security_clinica_grupo_director,1,1,1,0
access_med_oftalmologia,Crear Registro Oftalmologico,model_oftalmologia,med_oftalmologia.security_clinica_grupo_director,1,1,1,0
access_med_nota_evolutiva,Crear Nota Evolutiva,model_nota_evolutiva,med_oftalmologia.security_clinica_grupo_director,1,1,1,0
access_med_nota_estudio,Crear Nota Estudio,model_nota_estudio,med_oftalmologia.security_clinica_grupo_director,1,1,1,0
access_med_archivos_adjuntos,Carga archivos adjuntos,model_archivos_adjuntos,med_oftalmologia.security_clinica_grupo_director,1,1,1,0
access_med_medicamento_evolutivo,Carga de medicamentos para nota evolutiva,model_medicamento_evolutivo,med_oftalmologia.security_clinica_grupo_director,1,1,1,0
access_med_medicamento_oftalmologia,Carga de medicamentos para oftalmologia,model_medicamento_oftalmologia,med_oftalmologia.security_clinica_grupo_director,1,1,1,0
access_med_registro_doctores,Carga de Personal de la Salud,model_registro_doctores,med_oftalmologia.security_clinica_grupo_director,1,1,1,0
access_med_registro_pacientes,Carga de Pacientes ,model_registro_paciente,med_oftalmologia.security_clinica_grupo_director,1,1,1,0
access_med_venta_lentes,Carga de Venta de lentes,model_venta_lentes,med_oftalmologia.security_clinica_grupo_director,1,1,1,0
,,,,,,,
access_med_agenda_citas_ejectiva,Agendar Citas,model_agenda_citas,med_oftalmologia.security_clinica_grupo_ejecutiva,1,1,1,0
access_med_registro_pacientes_ejecutiva,Carga de Pacientes ,model_registro_paciente,med_oftalmologia.security_clinica_grupo_ejecutiva,1,1,1,0
access_med_agenda_referencia_ej,Crear Referencias,model_agenda_referencias,med_oftalmologia.security_clinica_grupo_ejecutiva,1,1,1,0
access_med_agenda_referencia_dir_ej,Crear Direcciones en Referencias,model_referencia_direccion,med_oftalmologia.security_clinica_grupo_ejecutiva,1,1,1,0
access_med_agenda_referencia_telf_ej,Crear Telefonos en Referencias,model_referencia_telefono,med_oftalmologia.security_clinica_grupo_ejecutiva,1,1,1,0
access_med_expediente_clinico_ej,Ve Expedientes clinicos,model_expediente_clinico,med_oftalmologia.security_clinica_grupo_ejecutiva,1,1,1,0
access_med_entrevista_ej,Ve Entrevistas,model_entrevista_medica,med_oftalmologia.security_clinica_grupo_ejecutiva,0,0,0,0
access_med_oftalmologia_ej,Ve Registro Oftalmologico,model_oftalmologia,med_oftalmologia.security_clinica_grupo_ejecutiva,1,0,0,0
access_med_exploracion_optometrica_ej,Ve Exploracion Optometrica,model_exploracion_optometrica,med_oftalmologia.security_clinica_grupo_ejecutiva,1,1,0,0
access_med_venta_lentes_ej,Ve de Venta de lentes,model_venta_lentes,med_oftalmologia.security_clinica_grupo_ejecutiva,1,1,1,0
access_med_nota_evolutiva_ej,Ve nota evolutiva,model_nota_evolutiva,med_oftalmologia.security_clinica_grupo_ejecutiva,1,0,0,0
access_med_nota_estudio_ej,Ve nota estudio,model_nota_estudio,med_oftalmologia.security_clinica_grupo_ejecutiva,1,1,0,0
access_med_estudios_ofta_ej,Ve nota estudios pre-operatorios,model_estudios_oftalmologicos,med_oftalmologia.security_clinica_grupo_ejecutiva,1,0,0,0
access_med_estudios_pre_ej,Ve nota estudios oftalmologicos,model_lab_preoperatorios,med_oftalmologia.security_clinica_grupo_ejecutiva,1,0,0,0
access_med_nota_privacidad_ej,Ve nota privacidad,model_nota_privacidad,med_oftalmologia.security_clinica_grupo_ejecutiva,1,0,0,0
access_med_agenda_referencia,Ve Referencias,model_agenda_referencias,med_oftalmologia.security_clinica_grupo_ejecutiva,1,0,0,0
access_med_agenda_citas_doctor_ej,Permisos sobre personal,model_registro_doctores,med_oftalmologia.security_clinica_grupo_ejecutiva,1,0,0,0
access_med_expediente_ej,Permisos sobre expediente,model_expediente_clinico,med_oftalmologia.security_clinica_grupo_ejecutiva,1,1,1,0
access_med_privacidad_ej,Permisos sobre nota de privacidad,model_nota_privacidad,med_oftalmologia.security_clinica_grupo_ejecutiva,1,1,1,0
,,,,,,,
access_med_agenda_citas_doctor,Agendar Citas,model_agenda_citas,med_oftalmologia.security_clinica_grupo_doctor,1,0,0,0
access_med_agenda_referencia_doctor,Crear Referencias,model_agenda_referencias,med_oftalmologia.security_clinica_grupo_doctor,1,0,0,0
access_med_agenda_referencia_dir_doctor,Crear Direcciones en Referencias,model_referencia_direccion,med_oftalmologia.security_clinica_grupo_doctor,1,0,0,0
access_med_entrevista_doctor,Crear Entrevistas,model_entrevista_medica,med_oftalmologia.security_clinica_grupo_doctor,1,1,1,0
access_med_estudios_oftal_doctor,Crear Estudios Oftalmologicos,model_estudios_oftalmologicos,med_oftalmologia.security_clinica_grupo_doctor,1,1,1,0
access_med_agenda_referencia_telf_doctor,Crear Telefonos en Referencias,model_referencia_telefono,med_oftalmologia.security_clinica_grupo_doctor,1,1,1,0
access_med_expediente_clinico_doctor,Crear Expedientes clinicos,model_expediente_clinico,med_oftalmologia.security_clinica_grupo_doctor,1,1,1,0
access_med_exploracion_optometrica_doctor,Crear Exploracion Optometrica,model_exploracion_optometrica,med_oftalmologia.security_clinica_grupo_doctor,1,1,1,0
access_med_refraccion_final_doctor,Crear Refraccion Final para exp optometrica,model_refraccion_final,med_oftalmologia.security_clinica_grupo_doctor,1,1,1,0
access_med_lab_preoperatorios_doctor,Crear Laboratorios Pre-Operatorios,model_lab_preoperatorios,med_oftalmologia.security_clinica_grupo_doctor,1,1,1,0
access_med_nota_privacidad_doctor,Crear Nota Privacidad,model_nota_privacidad,med_oftalmologia.security_clinica_grupo_doctor,1,1,1,0
access_med_oftalmologia_doctor,Crear Registro Oftalmologico,model_oftalmologia,med_oftalmologia.security_clinica_grupo_doctor,1,1,1,0
access_med_nota_evolutiva_doctor,Crear Nota Evolutiva,model_nota_evolutiva,med_oftalmologia.security_clinica_grupo_doctor,1,1,1,0
access_med_nota_estudio_doctor,Crear Nota Estudio,model_nota_estudio,med_oftalmologia.security_clinica_grupo_doctor,1,1,1,0
access_med_archivos_adjuntos_doctor,Carga archivos adjuntos,model_archivos_adjuntos,med_oftalmologia.security_clinica_grupo_doctor,1,1,1,0
access_med_medicamento_evolutivo_doctor,Carga de medicamentos para nota evolutiva,model_medicamento_evolutivo,med_oftalmologia.security_clinica_grupo_doctor,1,1,1,0
access_med_medicamento_oftalmologia_doctor,Carga de medicamentos para oftalmologia,model_medicamento_oftalmologia,med_oftalmologia.security_clinica_grupo_doctor,1,1,1,0
access_med_registro_doctores_doctor,Carga de Personal de la Salud,model_registro_doctores,med_oftalmologia.security_clinica_grupo_doctor,1,1,1,0
access_med_registro_pacientes_doctor,Carga de Pacientes ,model_registro_paciente,med_oftalmologia.security_clinica_grupo_doctor,1,1,1,0
access_med_venta_lentes_doctor,Carga de Venta de lentes,model_venta_lentes,med_oftalmologia.security_clinica_grupo_doctor,1,1,1,0
